A Patent Dataset for Drone Technology • drones
…
Load the library

library(tidyverse)

To demonstrate this let’s separate out the applicant (assignee) field and then count it up:

applicants <- drones::applicants %>% 
  separate_rows(applicant_cleaned, sep = ";") %>%
  mutate(applicant_cleaned = str_trim(applicant_cleaned, side = "both")) %>% 
  drop_na(applicant_cleaned) # drop not available entries

applicants %>% count(applicant_cleaned, sort = TRUE)

## # A tibble: 6,929 x 2
##    applicant_cleaned                               n
##    <chr>                                       <int>
##  1 QUALCOMM Incorporated                         498
##  2 Thales                                        382
##  3 HON HAI PRECISION INDUSTRY CO LTD             345
##  4 QINGHUA UNIV                                  343
##  5 Samsung Electronics Co. Ltd.                  213
##  6 International Business Machines Corporation   193
##  7 THE BOEING COMPANY                            181
##  8 GOOGLE INC.                                   167
##  9 Elwha LLC                                     166
## 10 SONY CORPORATION                              148
## # ... with 6,919 more rows
…
